Week 2 - Data Cleaning
…
Water_cover and Land_cover and Total_cover are currently character data types, we’d expect these values to be double.

# Count the number of unique values in Water_cover.
snowcover_csv %>%
  count(Water_cover)

# A tibble: 79 × 2
   Water_cover     n
   <chr>       <int>
 1 -              10
 2 .             575
 3 0           18286
 4 0.25            1
 5 1              16
 6 1.25            4
 7 1.75            1
 8 10           5185
 9 100           157
10 11.25           1
# ℹ 69 more rows

There are observations where Water_cover is recorded as ‘-’, ‘.’, ‘n/a’, and ‘unk’. We’ll want to change these observations to true NA values.

# Count the number of unique values in Land_cover.
snowcover_csv %>%
  count(Land_cover)

# A tibble: 101 × 2
   Land_cover     n
   <chr>      <int>
 1 -             10
 2 -100           1
 3 -298           1
 4 .            585
 5 0           8030
 6 1             10
 7 1.5            1
 8 10          1252
 9 100         6921
10 11.25          2
# ℹ 91 more rows

There are observations where Land_cover is recorded as ‘-’, ‘.’, ‘n/a’, ‘unk’, and some negative values. We’ll want to change these observations to true NA values and determine if negative values are realistic or are an input error and should be converted to positive values.

# Count the number of unique values in Total_cover.
snowcover_csv %>%
  count(Total_cover)

# A tibble: 39 × 2
   Total_cover     n
   <chr>       <int>
 1 -               8
 2 .             545
 3 0            1578
 4 1               1
 5 10            486
 6 100         37449
 7 102             1
 8 105             5
 9 108             1
10 110            13
# ℹ 29 more rows
…
# A tibble: 1 × 2
  Total_cover     n
        <dbl> <int>
1          NA   638

Yay we have finally numeric columns for Land_cover, Water_cover, and Total_cover 🎉, where the only non-numeric values within these columns are NA values.

We’ll correct the Total_cover column, by adding up Land_cover, Water_cover and Snow_cover to determine the proper value within Total_cover. As defined by the metadata, all the values in Total_cover should sum to 100.

# Recalculate the `Total_cover` column.
snowcover_fixed <- snowcover_fixed %>%
  mutate(Total_cover = Snow_cover + Water_cover + Land_cover)
snowcover_fixed

# A tibble: 42,830 × 11
   Site   Year Date      Plot  Location Snow_cover Water_cover Land_cover
   <chr> <dbl> <chr>     <chr> <chr>         <dbl>       <dbl>      <dbl>
 1 barr   2011 29-May-11 brw1  b10              90           0         10
 2 barr   2011 29-May-11 brw1  b12             100           0          0
 3 barr   2011 29-May-11 brw1  b2               90           0         10
 4 barr   2011 29-May-11 brw1  b4              100           0          0
 5 barr   2011 29-May-11 brw1  b6               95           0          5
 6 barr   2011 29-May-11 brw1  b8               95           0          5
 7 barr   2011 29-May-11 brw1  d10              95           0          5
 8 barr   2011 29-May-11 brw1  d12              90           0         10
 9 barr   2011 29-May-11 brw1  d2               95           0          5
10 barr   2011 29-May-11 brw1  d4               95           0          5
# ℹ 42,820 more rows
# ℹ 3 more variables: Total_cover <dbl>, Observer <chr>, Notes <chr>

We are dealing with percentages, so we should verify that all the values are between 0 and 100:

# Check for values in `Total_cover` not equal to 100.
snowcover_fixed %>% 
  filter(Total_cover != 100) 

# A tibble: 4,573 × 11
   Site    Year Date      Plot  Location  Snow_cover Water_cover Land_cover
   <chr>  <dbl> <chr>     <chr> <chr>          <dbl>       <dbl>      <dbl>
 1 cakr    2012 29-Jun-12 nepe  nepe rsc1          0           0          0
 2 cakr    2012 29-Jun-12 nepe  nepe rsc3          0           0          0
 3 cakr    2012 29-Jun-12 nepe  nepe rsc4          0           0          0
 4 cakr    2013 19-Jun-13 camp  camp rsc2          0           0         15
 5 cari    2011 11-Jun-11 5b    19                35          30         45
 6 cari    2011 11-Jun-11 5b    21                 5          55         45
 7 cari    2011 11-Jun-11 5b    22                10          30         70
 8 cari    2011 11-Jun-11 7a    12                15          20         60
 9 ebmain  2012 17-Jun-12 <NA>  4                 15          40         35
10 ebmain  2012 20-Jun-12 <NA>  3                  5          75         10
# ℹ 4,563 more rows
# ℹ 3 more variables: Total_cover <dbl>, Observer <chr>, Notes <chr>
…
